<svg width="20" height="20" viewBox="0 0 20 20" fill="none" xmlns="http://www.w3.org/2000/svg">
<circle cx="10" cy="10" r="10" fill="#3A3A3A"/>
<path d="M14.6429 7.18491H12.9991V5.61904C12.9991 5.27733 12.7217 5 12.38 5H7.6205C7.27879 5 7.00146 5.27733 7.00146 5.61904V7.18491H5.35728C4.84471 7.18491 4.42871 7.60091 4.42871 8.11348V14.0718C4.42871 14.585 4.84471 15.0003 5.35728 15.0003H14.6429C15.1558 15.0003 15.5715 14.585 15.5715 14.0718V8.11348C15.5715 7.60122 15.1561 7.18491 14.6429 7.18491ZM8.23954 6.23871H11.761V7.18584H8.23954V6.23871Z" fill="white"/>
</svg>
