<svg width="20" height="20" viewBox="0 0 20 20" fill="none" xmlns="http://www.w3.org/2000/svg">
<circle cx="10" cy="10" r="10" fill="#3A3A3A"/>
<g clip-path="url(#clip0)">
<path d="M14.806 12.9516L13.6974 12.2125L12.7119 11.5556C12.5217 11.429 12.2661 11.4705 12.1257 11.6508L11.5159 12.4347C11.3849 12.6048 11.1493 12.6537 10.9614 12.5497C10.5476 12.3195 10.0583 12.1028 8.97867 11.0218C7.89904 9.94078 7.68094 9.45286 7.45076 9.03907C7.34676 8.85122 7.39565 8.61558 7.56576 8.48461L8.34972 7.87479C8.52993 7.7344 8.57143 7.4788 8.44489 7.28859L7.80818 6.33342L7.04887 5.19445C6.91964 5.00059 6.66093 4.94238 6.46113 5.06221L5.58543 5.58755C5.34878 5.72698 5.17481 5.95214 5.09958 6.21633C4.86011 7.08943 4.81183 9.01544 7.89851 12.1021C10.9852 15.1888 12.911 15.1404 13.7841 14.9009C14.0483 14.8257 14.2735 14.6517 14.4129 14.415L14.9383 13.5394C15.0581 13.3395 14.9999 13.0808 14.806 12.9516Z" fill="white"/>
</g>
<defs>
<clipPath id="clip0">
<rect width="10" height="10" fill="white" transform="translate(5 5)"/>
</clipPath>
</defs>
</svg>
