<svg width="20" height="14" viewBox="0 0 20 14" fill="none" xmlns="http://www.w3.org/2000/svg">
<path d="M3.33268 0.333008H16.666C17.5827 0.333008 18.3327 1.08301 18.3327 1.99967V11.9997C18.3327 12.9163 17.5827 13.6663 16.666 13.6663H3.33268C2.41602 13.6663 1.66602 12.9163 1.66602 11.9997V1.99967C1.66602 1.08301 2.41602 0.333008 3.33268 0.333008Z" fill="white"/>
<path d="M18.3327 2L9.99935 7.83333L1.66602 2" stroke="#500E4B" stroke-width="2" stroke-linecap="round" stroke-linejoin="round"/>
</svg>
