<svg width="204" height="141" viewBox="0 0 204 141" fill="none" xmlns="http://www.w3.org/2000/svg">
<path d="M202.231 36.0364C201.097 35.7234 199.879 37.4832 198.948 39.1669C198.877 39.1508 198.804 39.1503 198.733 39.1654C198.662 39.1805 198.596 39.2108 198.538 39.2543C198.48 39.2978 198.432 39.3533 198.397 39.4171C198.363 39.481 198.343 39.5515 198.339 39.6238C198.339 39.8946 198.339 40.1653 198.279 40.4699C197.983 41.0537 197.746 41.5444 197.594 41.8067L197.408 42.0774C197.333 42.0982 197.266 42.1406 197.215 42.1993C197.164 42.2579 197.131 42.3303 197.12 42.4074C197.125 42.4524 197.125 42.4977 197.12 42.5428C195.909 44.0947 194.82 45.7381 193.863 47.4585C192.822 49.6667 190.8 50.0728 188.837 51.232C187.282 52.0381 185.791 52.9631 184.378 53.9986C182.713 55.4524 181.181 57.0522 179.801 58.779C177.728 61.1818 174.725 63.627 173.32 66.6136C173.1 66.3936 172.88 66.1821 172.643 65.9875C170.782 64.4815 169.09 62.8486 167.262 61.2918C163.805 58.3908 159.702 56.36 155.299 55.3693C152.904 54.7855 150.688 53.6771 148.369 52.941C145.62 52.0273 142.87 50.902 140.213 49.7175C139.049 49.3442 137.958 48.7716 136.99 48.0253C136.284 47.4889 135.514 47.0427 134.697 46.697C133.841 46.0796 133.022 45.4129 132.243 44.7003C132.04 44.5649 129.705 43.4227 129.705 43.3635C129.705 43.2647 129.666 43.17 129.596 43.1002C129.526 43.0304 129.431 42.9912 129.333 42.9912C129.234 42.9912 129.139 43.0304 129.07 43.1002C129 43.17 128.961 43.2647 128.961 43.3635V43.4481C128.948 43.4895 128.948 43.5336 128.961 43.575C128.975 43.6063 128.995 43.635 129.02 43.6596C129.034 43.6786 129.052 43.6956 129.071 43.7104L129.544 44.0065C130.027 44.658 130.687 45.2164 131.186 45.8509C131.997 46.7788 132.876 47.6442 133.817 48.4399C134.663 49.2183 135.103 50.2928 135.856 51.1389C136.578 51.9371 137.387 52.6523 138.267 53.271C139.968 54.4553 141.886 55.292 143.911 55.7331C144.682 55.855 145.434 56.071 146.153 56.3761C146.787 56.6722 146.627 56.9514 146.999 57.2222C147.904 57.8398 149.74 57.6875 150.028 59.092C150.051 59.2954 150.125 59.4896 150.244 59.6567C150.362 59.8238 150.521 59.9584 150.705 60.0481C151.016 60.1805 151.343 60.2715 151.678 60.3188C152.084 60.4203 152.524 61.2749 152.761 61.6641C152.998 62.0533 154.512 62.3071 154.453 62.5609C154.429 62.7519 154.444 62.9459 154.498 63.1307C154.551 63.3156 154.643 63.4874 154.766 63.6354C155.121 63.9993 155.713 64.16 155.908 64.6846C155.974 64.9205 156.074 65.1456 156.204 65.353C156.779 65.9198 157.896 66.1144 158.59 66.4444C159.614 66.9351 160.079 67.8574 160.959 68.4835C161.895 68.9883 162.751 69.6299 163.497 70.3871C163.383 70.4933 163.276 70.6063 163.176 70.7256C163.055 70.9047 162.973 71.1072 162.935 71.3199C162.897 71.5326 162.904 71.751 162.956 71.9608C162.967 72.0153 162.996 72.0648 163.037 72.1027C163.078 72.1406 163.129 72.1649 163.184 72.1723C162.378 72.736 161.408 73.0158 160.426 72.9677C157.888 72.8577 155.13 71.064 152.668 71.597C152.619 71.6102 152.574 71.6361 152.539 71.672C152.503 71.7079 152.478 71.7525 152.465 71.8014C152.452 71.8503 152.452 71.9018 152.465 71.9506C152.479 71.9993 152.505 72.0437 152.541 72.0793C153.201 72.8069 153.539 74.186 154.182 75.0236C154.869 75.9672 155.811 76.6951 156.898 77.1219C158.184 77.5788 158.734 78.5348 160.181 78.3402C161.12 78.2133 161.636 77.7141 162.719 77.968C163.47 78.102 164.234 78.1474 164.995 78.1033C167.143 78.1794 169.282 78.4255 171.391 78.8394C173.194 79.0609 175.017 79.0409 176.815 78.7802C178.507 78.5941 180.284 79.0509 181.967 78.6364C182.492 78.4457 182.973 78.1532 183.384 77.7757C183.795 77.3981 184.127 76.943 184.362 76.4366C184.656 76.5873 184.939 76.7598 185.208 76.9527C185.487 77.1642 185.885 76.8765 185.885 76.5719C185.884 75.9487 185.776 75.3303 185.563 74.7444L185.461 74.5583C186.485 73.0438 185.605 71.2501 183.922 70.6494C183.685 70.5731 183.441 70.5193 183.194 70.4887C183.78 69.1337 184.455 67.8194 185.216 66.5544C186.494 64.4815 188.558 62.9332 190.496 61.4779C192.069 60.3273 193.761 59.3712 195.267 58.136C196.787 56.8174 198.109 55.2873 199.193 53.5925C201.198 50.6905 203.254 47.8561 203.644 44.2011C203.948 42.6274 204.566 36.6795 202.231 36.0364ZM134.875 48.2453C134.809 48.2234 134.737 48.2234 134.672 48.2453C133.986 47.5685 133.225 47.01 132.514 46.3332C132.209 46.0342 131.905 45.7296 131.6 45.4194C132.303 45.9694 132.996 46.5447 133.715 47.1116C134.435 47.6784 135.467 48.1438 136.254 48.8037C135.805 48.592 135.344 48.4056 134.875 48.2453ZM137.345 51.4689C137.135 51.2814 136.937 51.0808 136.753 50.8682C137.124 51.065 137.508 51.2347 137.903 51.3758C137.878 51.4642 137.878 51.5581 137.903 51.6465C137.944 51.7844 138.01 51.9135 138.098 52.0273C137.833 51.8607 137.581 51.674 137.345 51.4689ZM202.18 46.6885C201.055 50.259 198.339 53.7702 195.775 56.4438C193.212 59.1174 190.022 60.7249 187.314 63.0601C184.988 65.0907 183.744 67.7051 182.509 70.4633C182.128 70.4728 181.751 70.5413 181.392 70.6663C180.842 70.8694 180.546 71.5124 180.216 71.9439C180.206 71.957 180.2 71.9728 180.199 71.9893C180.198 72.0058 180.201 72.0222 180.209 72.0366C180.217 72.051 180.23 72.0627 180.244 72.0703C180.259 72.0779 180.276 72.081 180.292 72.0793C180.514 72.0628 180.726 71.9803 180.901 71.8424C181.093 71.682 181.316 71.5638 181.557 71.4953C181.797 71.4267 182.05 71.4095 182.297 71.4447C182.919 71.4416 183.537 71.5564 184.116 71.7831C184.443 71.938 184.702 72.2058 184.847 72.537C184.991 72.8682 185.011 73.2405 184.903 73.5853L184.793 73.433C184.767 73.3898 184.732 73.3534 184.689 73.3269C184.646 73.3004 184.598 73.2845 184.548 73.2807C184.502 73.2447 184.449 73.2188 184.392 73.2047C184.335 73.1907 184.276 73.1888 184.218 73.1992C184.161 73.2095 184.106 73.232 184.058 73.265C184.01 73.298 183.969 73.3408 183.939 73.3907C183.8 73.666 183.73 73.9709 183.735 74.2791C183.735 74.4821 183.287 74.4906 182.889 74.4652C182.769 74.4515 182.646 74.4515 182.526 74.4652H182.424H182.306C181.815 74.5329 181.95 75.3113 182.424 75.3113C182.898 75.3113 183.194 75.8189 183.609 76.0558L183.803 76.1574C182.746 77.3588 181.874 78.3064 179.903 78.061C178.122 77.9426 176.333 78.0021 174.564 78.2387C171.4 78.4841 168.227 77.3419 165.037 77.3926C164.191 77.3926 163.43 77.2573 162.634 77.2065L163.134 76.9611C163.933 76.824 164.7 76.5369 165.392 76.1151C165.773 75.8866 165.638 75.1759 165.156 75.269C164.364 75.3981 163.598 75.6553 162.888 76.0304C162.169 76.1574 161.518 75.8105 160.807 75.9205C159.851 76.0558 159.394 76.7073 158.675 77.2065C158.387 77.0204 158.099 76.8173 157.769 76.6396C156.302 76.0274 155.042 75.0051 154.14 73.6953C153.818 73.2384 153.674 72.5869 153.353 72.1131C154.664 71.9101 156.737 72.9592 157.871 73.2469C158.929 73.4946 160.009 73.6419 161.094 73.6868C161.941 73.7573 162.785 73.5364 163.489 73.0607C164.425 72.443 165.48 72.028 166.585 71.8424C166.753 71.8419 166.919 71.8133 167.076 71.7578C167.465 71.6478 167.406 70.9794 166.983 71.0301C166.034 71.0257 165.095 71.2308 164.233 71.6309H164.183C164.005 71.6309 163.836 71.6309 163.667 71.6309C163.667 71.3601 164.741 70.4125 164.462 70.0487C163.421 68.5681 161.687 68.0266 160.443 66.6644C159.917 66.1379 159.281 65.7335 158.582 65.4799C158.015 65.2599 157.101 65.1668 156.889 64.5069C156.831 64.2698 156.734 64.0439 156.602 63.8385C155.595 62.9078 155.519 61.681 154.064 61.3003C153.522 61.1564 153.015 59.9635 152.481 59.6081C152.214 59.478 151.929 59.3896 151.635 59.3458C150.975 59.1766 150.95 58.4067 150.696 57.9075C150.442 57.4083 149.766 57.2222 149.309 57.0614C148.544 56.8049 147.822 56.4341 147.168 55.9615C146.279 55.3857 145.268 55.0263 144.215 54.9124C142.975 54.6909 141.791 54.2281 140.729 53.5502C140.298 53.2795 139.883 53.0595 139.452 52.8395C140.156 52.9741 140.868 53.0617 141.584 53.1018C142.887 53.2372 144.08 53.9902 145.315 54.4471C147.117 55.107 148.793 56.0038 150.569 56.7315C151.094 56.9514 151.415 56.08 150.95 55.8346C148.463 54.5824 145.874 53.711 143.335 52.5349C142.348 52.3094 141.343 52.1707 140.332 52.1204C140.427 52.1049 140.515 52.0582 140.582 51.9875C140.648 51.9169 140.69 51.8263 140.699 51.7298C140.709 51.6333 140.686 51.5364 140.635 51.454C140.584 51.3716 140.507 51.3084 140.416 51.2743L139.46 51.012C139.49 50.9544 139.505 50.8906 139.505 50.8258C139.505 50.7611 139.49 50.6973 139.46 50.6397C143.97 52.3996 148.361 54.3878 152.998 55.8346C155.138 56.5115 157.304 57.0107 159.385 57.8652C162.155 59.0217 164.707 60.6411 166.932 62.654C168.735 64.2277 170.444 65.8352 172.297 67.3497C173.938 68.6865 174.945 70.8102 176.882 71.8001C177.593 72.1639 178.219 71.0894 177.508 70.7256C176.011 69.9556 174.97 68.4665 173.794 67.1805C175.105 64.2361 178.27 61.7571 180.343 59.3797C182.83 56.395 185.84 53.8891 189.226 51.985C190.521 51.2743 191.909 50.8174 193.195 50.1321C194.041 49.6667 194.455 48.1184 194.828 47.3146C195.473 46.0815 196.241 44.9165 197.12 43.8373C197.246 44.7684 197.467 45.6842 197.78 46.5701C197.812 46.6637 197.873 46.7449 197.953 46.8024C198.034 46.86 198.13 46.8909 198.229 46.8909C198.328 46.8909 198.424 46.86 198.504 46.8024C198.585 46.7449 198.645 46.6637 198.677 46.5701C198.761 46.6093 198.856 46.6181 198.945 46.5949C199.035 46.5718 199.114 46.5181 199.168 46.4432C200.014 45.394 200.09 44.0572 200.251 42.7627C200.247 42.7205 200.247 42.678 200.251 42.6358C200.251 43.5242 200.183 44.4041 200.166 45.2841C200.171 45.4077 200.215 45.5266 200.292 45.6231C200.369 45.7197 200.476 45.7887 200.595 45.8201C200.715 45.8514 200.842 45.8434 200.956 45.7971C201.071 45.7508 201.168 45.6688 201.232 45.5633C201.182 45.8002 201.131 46.0286 201.097 46.2655C201.053 46.4056 201.065 46.5571 201.129 46.6891C201.193 46.821 201.305 46.9234 201.443 46.9753C201.58 47.0272 201.732 47.0247 201.867 46.9682C202.003 46.9118 202.112 46.8057 202.171 46.6716L202.18 46.6885ZM202.036 38.4393C201.867 39.0231 201.698 39.6069 201.545 40.1907C201.602 39.5035 201.455 38.8148 201.122 38.2109C201.055 38.1062 200.953 38.0284 200.835 37.9909C201.681 36.9333 202.222 37.2463 202.527 38.0332C202.413 38.0416 202.305 38.0852 202.217 38.158C202.129 38.2307 202.066 38.329 202.036 38.4393Z" fill="#C4C4C4" fill-opacity="0.3"/>
<path d="M100.857 90.195C100.983 88.1639 100.983 86.127 100.857 84.0959C100.73 81.8413 100.141 79.6709 99.9563 77.4332C99.6955 74.2869 99.6031 72.1838 96.4568 70.8462C92.8563 69.3151 89.9624 66.6399 86.8918 64.3097C83.9756 62.1691 81.2123 59.8275 78.6222 57.302H78.6728C82.5089 54.5596 85.0494 51.1862 90.139 51.0768C90.2964 51.0695 90.4462 51.0072 90.5624 50.9007C90.6786 50.7943 90.7536 50.6504 90.7747 50.4943C90.7957 50.3381 90.7613 50.1796 90.6774 50.0462C90.5935 49.9128 90.4655 49.8131 90.3156 49.7644C87.7919 49.1083 85.4196 48.7718 82.9968 47.6361C81.2104 46.9142 79.3235 46.4716 77.4025 46.3237C74.559 45.9536 71.6651 47.3837 69.3012 45.0787C67.6776 43.5055 67.0635 40.8724 66.0203 38.8955C64.8393 36.9532 64.0718 34.7881 63.7658 32.5356C63.5471 30.0119 64.607 27.5638 64.9772 25.0737C65.6081 20.9937 62.5796 18.8401 59.3324 17.166C55.2355 15.046 50.6422 13.5991 46.2593 12.1773C40.9258 10.4444 35.525 8.94133 30.0568 7.66824C25.0682 6.51572 19.8609 6.13716 15.0405 4.30323C10.4725 2.62073 6.35878 -0.214278 1.29445 0.0128598C0.899063 0.0128598 0.848586 0.517605 1.13461 0.677442C1.06772 0.720997 1.01525 0.7834 0.983808 0.856768C0.952365 0.930136 0.943388 1.01118 0.957981 1.08966L1.07572 1.67853C1.09159 1.72505 1.12164 1.76545 1.16162 1.79405C1.2016 1.82265 1.24951 1.83803 1.29866 1.83803C1.34782 1.83803 1.39573 1.82265 1.4357 1.79405C1.47568 1.76545 1.50573 1.72505 1.52161 1.67853C1.65621 0.96347 4.04537 3.41151 4.48282 3.79849C5.44165 4.65719 6.49424 5.40502 7.62067 6.0278C10.3716 7.59253 12.8028 9.39281 15.3938 11.1847C17.9849 12.9765 20.7273 13.7084 23.5876 14.6675C25.2718 15.4044 26.9172 16.2271 28.5173 17.1323C30.1325 17.8978 31.8823 18.4362 33.5228 19.0504C35.1145 19.5266 36.6117 20.2752 37.9478 21.2629C38.8731 22.1041 38.9152 24.4091 39.2181 25.5448C40.1603 29.0612 40.8417 32.6029 41.5315 36.1866C42.2213 39.7704 43.6935 43.1859 44.6862 46.6686C45.5291 49.8437 46.045 53.0966 46.2257 56.3767C43.0121 56.3767 39.7901 56.4608 36.5765 56.6206C34.7258 56.7048 32.875 56.8366 31.0243 57.016C29.6641 57.0248 28.3175 57.2873 27.0536 57.79C27.0426 57.7943 27.0332 57.8019 27.0266 57.8116C27.02 57.8214 27.0165 57.8329 27.0165 57.8447C27.0165 57.8564 27.02 57.8679 27.0266 57.8777C27.0332 57.8874 27.0426 57.895 27.0536 57.8993H27.2807C27.0732 57.9565 26.8625 58.0014 26.6498 58.0339C26.5653 58.0605 26.4914 58.113 26.4385 58.184C26.3857 58.255 26.3566 58.3408 26.3554 58.4293C26.3342 58.6363 26.3342 58.8449 26.3554 59.0518C26.3556 59.1494 26.3877 59.2442 26.447 59.3217C26.5063 59.3992 26.5893 59.4551 26.6834 59.4809C28.0462 59.9856 28.2481 62.4421 29.3081 63.4516C30.3681 64.4611 31.3439 65.1341 31.2009 66.8166C31.1886 67.4769 31.4157 68.1194 31.8403 68.6253C32.3114 69.273 33.0517 69.6768 33.5228 70.3078C33.9939 70.9387 34.2126 72.0408 34.8099 72.7558C35.6512 73.7737 36.5933 74.7075 37.4009 75.7675C38.0235 76.6088 38.3095 77.5762 38.8647 78.4343C40.5472 80.958 43.9122 77.3407 45.1404 76.3227C47.151 74.7075 49.128 73.2606 51.0293 71.4855C51.9553 70.5706 53.0129 69.7994 54.1671 69.1973C54.7102 68.9416 55.2259 68.6316 55.7066 68.272C56.0935 68.1963 56.4721 68.0869 56.8591 68.0028C57.8005 68.5476 58.782 69.02 59.795 69.4161C61.8616 70.4523 63.8058 71.7164 65.5913 73.1849C68.645 75.574 71.5473 78.2324 74.4581 80.7982C77.3684 83.2093 79.943 85.999 82.1134 89.0929C83.3041 90.8164 84.1602 92.7484 84.6372 94.7882C85.0999 97.0007 84.755 99.373 84.94 101.619C85.2849 105.623 85.4616 109.603 86.0757 113.59C86.816 118.402 87.9769 123.071 88.5069 127.891C88.8014 130.575 89.2472 133.317 89.7604 135.959C90.0464 137.473 90.4671 140.165 92.2253 140.704C92.373 140.737 92.5276 140.715 92.6602 140.642C92.7928 140.569 92.8943 140.45 92.9459 140.308C92.9974 140.166 92.9953 140.01 92.9401 139.869C92.8849 139.728 92.7804 139.612 92.6459 139.543C92.7247 139.516 92.7965 139.471 92.8561 139.413C92.9158 139.355 92.9618 139.284 92.9909 139.206C96.2886 131.786 97.6513 123.811 97.87 115.735C97.87 114.356 98.0047 113.001 98.1225 111.655C98.7351 110.111 99.1724 108.502 99.4263 106.86C99.4768 106.482 99.0394 106.288 98.7281 106.389C98.9132 105.085 99.1067 103.781 99.317 102.46C99.9395 98.414 100.562 94.3423 100.857 90.195ZM25.7328 7.92903C27.3732 8.21506 28.9968 8.50949 30.5784 8.89647C32.1599 9.28344 33.9434 9.73772 35.5838 10.1836C34.6458 10.2165 33.7105 10.3036 32.7825 10.4444C31.1589 10.6547 29.5268 10.6294 27.9032 10.8061C25.3795 11.0585 22.1575 11.9586 19.6506 11.0332C19.8195 10.9053 20.0031 10.798 20.1974 10.7136C22.0818 10.5369 23.9662 10.2761 25.8758 10.2341C26.0102 10.2174 26.134 10.1522 26.2236 10.0507C26.3133 9.94925 26.3628 9.81848 26.3628 9.68303C26.3628 9.54759 26.3133 9.41682 26.2236 9.31533C26.134 9.21385 26.0102 9.14866 25.8758 9.13202C24.942 9.13202 23.6044 9.0563 22.2837 9.13202C23.2679 8.93012 24.2522 8.75345 25.2533 8.62726C25.3318 8.6153 25.4069 8.58737 25.4742 8.54519C25.5415 8.503 25.5994 8.44748 25.6443 8.38203C25.6893 8.31659 25.7203 8.24262 25.7355 8.1647C25.7507 8.08678 25.7498 8.00658 25.7328 7.92903ZM6.628 4.32006C5.61009 3.57135 4.70155 2.70486 3.69205 1.91408C3.23138 1.45655 2.70025 1.07595 2.11891 0.786809C6.9561 1.26632 10.9941 3.77326 15.4864 5.49782C15.8649 5.64083 16.2519 5.7586 16.6305 5.88479C13.3664 5.22861 10.3211 3.74801 6.92242 3.69753C6.84987 3.69657 6.7786 3.7165 6.71704 3.75491C6.65548 3.79332 6.60624 3.84862 6.57522 3.91421C6.5442 3.9798 6.53269 4.05293 6.54205 4.12488C6.55141 4.19684 6.58124 4.26458 6.628 4.32006ZM10.1865 6.47366C9.50507 6.04462 8.81526 5.63241 8.10019 5.26226C7.63932 5.02017 7.20024 4.73871 6.78784 4.42101C6.8323 4.42963 6.87797 4.42963 6.92242 4.42101C9.33501 4.67386 11.7079 5.21907 13.989 6.04463H10.6239C10.5098 6.05442 10.4029 6.10477 10.3226 6.18656C10.2424 6.26835 10.1941 6.37616 10.1865 6.49049V6.47366ZM15.4611 10.0574C15.1331 9.84708 14.8049 9.63676 14.4853 9.41804C15.3265 9.4601 16.1678 9.41804 16.9585 9.41804C16.5716 9.53581 16.1762 9.64518 15.7892 9.77136C15.7172 9.7926 15.6505 9.82916 15.5939 9.87852C15.5373 9.92789 15.492 9.98891 15.4611 10.0574ZM17.1436 11.0669L16.8155 10.8734C17.3287 10.8734 17.8335 10.8734 18.3466 10.8734C18.3215 10.9022 18.2989 10.9332 18.2793 10.966C18.2044 11.0947 18.1827 11.2477 18.2189 11.3922C18.255 11.5367 18.3461 11.6615 18.4728 11.7399C17.9933 11.538 17.5474 11.3109 17.11 11.0669H17.1436ZM14.99 7.53365C14.0802 7.52826 13.178 7.36604 12.3232 7.05413H18.1363C18.2063 7.05745 18.2759 7.04326 18.339 7.01283C18.4021 6.9824 18.4566 6.93671 18.4975 6.87988C18.5385 6.82306 18.5646 6.75692 18.5735 6.68745C18.5824 6.61798 18.5738 6.54739 18.5485 6.48208C20.4666 6.98683 22.4267 7.32333 24.4373 7.7103C23.0997 7.8449 21.7705 8.00474 20.4413 8.14775C20.5037 8.07274 20.5434 7.9815 20.5558 7.88474C20.5682 7.78797 20.5527 7.68967 20.5112 7.60138C20.4697 7.51309 20.4039 7.43846 20.3215 7.38623C20.2391 7.334 20.1435 7.30635 20.046 7.3065C18.3461 7.21549 16.6414 7.29157 14.9564 7.53365H14.99ZM51.4078 69.8367C49.4897 71.3509 47.8156 73.1007 45.8387 74.5729C44.3329 75.7002 42.4064 78.1398 40.4547 78.3417C39.6807 78.4259 38.6965 75.8769 38.3095 75.288C37.7646 74.5312 37.1598 73.8195 36.5008 73.1596C35.2053 71.7547 34.8183 69.7946 33.3209 68.5916C31.8235 67.3887 32.6311 65.4117 31.2766 63.9395C30.7887 63.4011 30.1914 62.9553 29.6615 62.4673C29.1315 61.9794 28.9632 60.9531 28.6267 60.2633C28.4538 59.7921 28.1644 59.3724 27.7854 59.0434C27.2134 58.6396 27.2134 58.7574 27.9116 58.3704C27.9599 58.3401 27.9973 58.2953 28.0185 58.2424C28.0397 58.1895 28.0435 58.1312 28.0294 58.076V58.0003C29.0453 57.9829 30.0592 57.9071 31.0663 57.7732C32.9171 57.6217 34.7678 57.5376 36.6186 57.4787C39.8574 57.3862 43.1046 57.4366 46.3434 57.4787C46.3393 57.5038 46.3393 57.5294 46.3434 57.5544C46.3434 57.5544 46.3434 57.5965 46.3434 57.6217C43.9711 59.3799 41.6156 61.1634 39.1003 62.6692C37.6028 63.5862 34.7258 65.0332 34.465 67.0185C34.1116 69.6348 38.4946 69.4918 40.0257 69.4161C42.1456 69.3151 44.2319 69.0543 46.3351 69.0459C48.5514 69.0978 50.7688 69.0022 52.9725 68.7599C52.4163 69.0829 51.8823 69.4426 51.3741 69.8367H51.4078ZM47.9082 67.7252H45.6452C45.1152 67.1447 44.6946 64.9154 44.6189 64.0237C44.6189 63.7965 44.3833 63.5526 44.1309 63.6535C41.3636 64.7624 38.6812 66.0726 36.1054 67.5737C35.138 66.5053 39.5798 63.889 40.3958 63.3675C42.9701 61.7943 45.3676 59.9015 47.7904 58.0928C47.8739 58.0758 47.9526 58.0406 48.0209 57.9897C48.0892 57.9388 48.1455 57.8735 48.1858 57.7984L49.1364 57.0917C52.7538 54.4839 56.2113 51.59 60.5269 50.2019C60.6563 50.1651 60.7658 50.0784 60.8313 49.9608C60.8968 49.8433 60.9129 49.7046 60.8761 49.5752C60.8392 49.4457 60.7526 49.3363 60.635 49.2708C60.5175 49.2053 60.3787 49.1892 60.2493 49.226C55.9505 50.244 52.6781 53.0537 49.1532 55.5354L48.0596 56.3262H47.9587H47.6053C47.3928 53.4589 46.988 50.609 46.3939 47.7959C45.5527 43.7158 43.7103 39.8797 42.8354 35.8081C42.0783 32.2412 41.4474 28.6995 40.4799 25.1831C39.7733 22.5836 39.8238 20.6656 37.2916 19.3364C34.0191 17.6539 30.3513 16.8968 27.1209 15.0797C24.6981 13.7168 22.0061 13.1111 19.4571 12.11C21.7621 12.8756 24.5046 12.3456 26.8012 12.0512C30.2671 11.6221 33.7499 11.6137 37.1906 10.9407C37.2566 10.9269 37.3165 10.8927 37.3619 10.8428C37.4072 10.793 37.4356 10.7301 37.443 10.6631C40.3145 11.4763 43.1691 12.3456 46.007 13.271C50.6759 14.802 55.5803 16.3752 59.8876 18.7643C62.5543 20.2449 64.2284 22.1293 63.7069 25.3093C63.3872 27.2694 62.6216 29.0949 62.5207 31.0887C62.3019 35.4968 64.8005 38.7693 66.4072 42.6643C66.9897 44.2336 67.9695 45.625 69.2507 46.7023C70.8827 47.9978 73.0952 47.7707 75.0385 47.6866C77.7672 47.4704 80.5069 47.9328 83.0135 49.0326C84.1906 49.5589 85.4202 49.9593 86.6815 50.2271C84.9953 50.7665 83.4277 51.6231 82.063 52.7509C80.5067 53.9707 79.127 55.3419 77.5034 56.5029C75.8798 57.6638 74.1384 58.7995 72.4559 60.0445C69.0909 62.6103 64.607 64.2508 60.6784 65.622C56.546 66.9855 52.2259 67.6951 47.8745 67.7252H47.9082ZM86.6646 109.123C86.1851 104.791 86.2019 100.433 85.9579 96.0921C85.5878 89.2696 79.6233 83.7342 74.8113 79.5868C72.0268 77.1892 69.2422 74.7496 66.3988 72.4698C64.8933 71.2908 63.2986 70.2305 61.629 69.2983C60.5185 68.6758 59.2819 68.2719 58.1209 67.7588C61.0531 66.9799 63.9172 65.9643 66.6849 64.7219C70.6249 62.8386 74.3674 60.5672 77.8568 57.9414C79.1102 60.196 81.8022 61.8364 83.7455 63.3506C86.4712 65.4874 89.121 67.742 91.956 69.7442C93.3522 70.7121 94.8467 71.5298 96.4147 72.1838C98.7113 73.168 98.686 75.2796 98.787 77.4668C98.8711 79.4354 99.4347 81.3955 99.6282 83.3556C99.7908 85.3847 99.8106 87.4228 99.6872 89.4547C99.3423 96.9334 97.2223 104.21 96.7175 111.638C96.4568 112.707 96.2548 113.792 96.0782 114.877C95.9183 115.39 95.7669 115.904 95.6491 116.425C95.1444 118.629 95.0098 120.833 94.5471 122.995C94.7322 118.343 95.5314 113.742 96.0446 109.115C96.0447 109.003 96.008 108.895 95.9404 108.807C95.8727 108.719 95.7778 108.655 95.6704 108.627C95.563 108.598 95.449 108.605 95.3463 108.648C95.2436 108.691 95.1579 108.766 95.1024 108.862C93.3358 112.454 94.2611 117.418 92.73 121.086C92.6443 121.032 92.5452 121.003 92.444 121.003C92.3428 121.003 92.2437 121.032 92.158 121.086C92.0238 121.168 91.8945 121.258 91.771 121.355C92.0654 118.722 92.8142 116.148 92.8731 113.481C92.8731 112.993 92.0991 112.875 92.0318 113.363C91.4429 116.837 89.6006 120.32 89.365 123.879C89.2977 123.416 89.2304 122.945 89.1547 122.474C88.3555 117.956 87.161 113.607 86.6646 109.123ZM91.14 126.68C91.0627 126.146 90.9215 125.624 90.7194 125.124C90.6886 125.048 90.6428 124.979 90.5848 124.922C90.6605 124.737 90.7447 124.568 90.8288 124.392C90.9142 124.465 91.0232 124.506 91.1358 124.506C91.2485 124.506 91.3574 124.465 91.4429 124.392C91.5522 124.299 91.6449 124.198 91.7374 124.106C91.6279 124.971 91.4276 125.823 91.14 126.646V126.68ZM90.6437 122.423C90.4103 122.736 90.1995 123.065 90.0128 123.408C90.2 122.418 90.4472 121.44 90.7531 120.48L90.9634 119.815C90.812 120.667 90.7053 121.527 90.6437 122.39V122.423ZM92.2085 137.49C92.1124 137.505 92.0232 137.549 91.9538 137.617C91.8843 137.685 91.8381 137.773 91.8215 137.869C91.771 138.163 91.7289 138.458 91.6785 138.76C90.7699 137.179 90.5848 133.805 90.4334 132.628C90.5124 132.639 90.5928 132.632 90.6692 132.609C90.7456 132.586 90.816 132.547 90.8759 132.494C90.9358 132.442 90.9836 132.377 91.0161 132.304C91.0486 132.231 91.0651 132.152 91.0644 132.072C91.0644 131.669 91.0643 131.231 91.1232 130.836C91.3672 128.935 92.2253 127.16 92.6628 125.284V125.452C92.6177 126.224 92.7803 126.993 93.1338 127.681C93.1804 127.761 93.2473 127.828 93.3278 127.874C93.4083 127.921 93.4995 127.945 93.5923 127.945C93.6852 127.945 93.7764 127.921 93.8569 127.874C93.9373 127.828 94.0043 127.761 94.0508 127.681C95.1009 125.306 95.809 122.793 96.154 120.219C95.7083 126.13 94.3783 131.94 92.2085 137.456V137.49Z" fill="#C4C4C4" fill-opacity="0.3"/>
</svg>
