<svg width="1271" height="719" viewBox="0 0 1271 719" fill="none" xmlns="http://www.w3.org/2000/svg">
<path d="M1.45117 598C129.785 692.834 438.551 821.2 646.951 576C855.351 330.8 841.451 125.5 808.451 53.5002C759.951 -11 646.951 -7.00002 620.951 23.5002C468.623 202.194 697.451 306 874.951 257.5C1016.95 218.7 1122.45 191.334 1157.45 182.5" stroke="#8B8B8B" stroke-opacity="0.1" stroke-width="3" stroke-dasharray="15 15"/>
<g clip-path="url(#clip0)">
<path d="M1249.08 81C1237.01 81 1227.2 90.8125 1227.2 102.875C1227.2 114.1 1244.75 133.981 1246.75 136.212C1247.34 136.869 1248.19 137.25 1249.08 137.25C1249.96 137.25 1250.81 136.869 1251.4 136.212C1253.4 133.981 1270.95 114.1 1270.95 102.875C1270.95 90.8125 1261.14 81 1249.08 81ZM1249.08 112.25C1243.9 112.25 1239.7 108.05 1239.7 102.875C1239.7 97.7 1243.9 93.5 1249.08 93.5C1254.25 93.5 1258.45 97.7 1258.45 102.875C1258.45 108.05 1254.25 112.25 1249.08 112.25Z" fill="#8B8B8B" fill-opacity="0.1"/>
<path d="M1172.91 117.713C1171.73 118.188 1170.95 119.338 1170.95 120.619V177.875C1170.95 178.912 1171.47 179.881 1172.33 180.462C1172.85 180.812 1173.46 181 1174.08 181C1174.47 181 1174.86 180.925 1175.24 180.775L1202.2 169.987V106L1172.91 117.713Z" fill="#8B8B8B" fill-opacity="0.1"/>
<path d="M1256.05 140.388C1254.28 142.363 1251.73 143.5 1249.08 143.5C1246.42 143.5 1243.88 142.363 1242.1 140.388C1241.46 139.681 1240.64 138.75 1239.7 137.644V181L1268.99 169.288C1270.18 168.819 1270.95 167.663 1270.95 166.388V120.444C1265.83 129.113 1258.99 137.113 1256.05 140.388Z" fill="#8B8B8B" fill-opacity="0.1"/>
<path d="M1222.92 111.788L1208.45 106V169.987L1233.45 179.987V129.8C1229.46 124.419 1225.29 117.937 1222.92 111.788Z" fill="#8B8B8B" fill-opacity="0.1"/>
</g>
<defs>
<clipPath id="clip0">
<rect width="100" height="100" fill="white" transform="translate(1170.95 81)"/>
</clipPath>
</defs>
</svg>
